{
	"info": {
		"name": "Xara",
		"_postman_id": "78ae207c-a13b-c0cb-8b72-5564d1538891",
		"description": "",
		"schema": "https://schema.getpostman.com/json/collection/v2.1.0/collection.json"
	},
	"item": [
		{
			"name": "Create company",
			"request": {
				"method": "POST",
				"header": [
					{
						"key": "Content-Type",
						"value": "application/json"
					},
					{
						"key": "Accept",
						"value": "application/json"
					}
				],
				"body": {
					"mode": "raw",
					"raw": "{\n\t\"displayName\": \"Company 4\"\n}\n"
				},
				"url": {
					"raw": "http://127.0.0.1:3000/company",
					"protocol": "http",
					"host": [
						"127",
						"0",
						"0",
						"1"
					],
					"port": "3000",
					"path": [
						"company"
					]
				},
				"description": ""
			},
			"response": []
		},
		{
			"name": "Edit company",
			"request": {
				"method": "PUT",
				"header": [
					{
						"key": "Content-Type",
						"value": "application/json"
					},
					{
						"key": "Accept",
						"value": "application/json"
					}
				],
				"body": {
					"mode": "raw",
					"raw": "{\n  \"displayName\": \"Company edited\"\n}\n"
				},
				"url": {
					"raw": "http://127.0.0.1:3000/company/f2689bc0-5914-11e8-a3ec-0106a8e5aee8",
					"protocol": "http",
					"host": [
						"127",
						"0",
						"0",
						"1"
					],
					"port": "3000",
					"path": [
						"company",
						"f2689bc0-5914-11e8-a3ec-0106a8e5aee8"
					]
				},
				"description": null
			},
			"response": []
		},
		{
			"name": "Edit workspace",
			"request": {
				"method": "PUT",
				"header": [
					{
						"key": "Content-Type",
						"value": "application/json"
					},
					{
						"key": "Accept",
						"value": "application/json"
					}
				],
				"body": {
					"mode": "raw",
					"raw": "{\n  \"displayName\": \"Workspace edited\"\n}\n"
				},
				"url": {
					"raw": "http://127.0.0.1:3000/company/f2689bc0-5914-11e8-a3ec-0106a8e5aee8/workspace/21157600-5915-11e8-a3ec-0106a8e5aee8",
					"protocol": "http",
					"host": [
						"127",
						"0",
						"0",
						"1"
					],
					"port": "3000",
					"path": [
						"company",
						"f2689bc0-5914-11e8-a3ec-0106a8e5aee8",
						"workspace",
						"21157600-5915-11e8-a3ec-0106a8e5aee8"
					]
				},
				"description": null
			},
			"response": []
		},
		{
			"name": "Create workspace",
			"request": {
				"method": "POST",
				"header": [
					{
						"key": "Content-Type",
						"value": "application/json"
					},
					{
						"key": "Accept",
						"value": "application/json"
					}
				],
				"body": {
					"mode": "raw",
					"raw": "{\n  \"displayName\": \"workspace edited\"\n}\n"
				},
				"url": {
					"raw": "http://127.0.0.1:3000/company/6a195890-5928-11e8-bf29-ebf83cd89c2b/workspace",
					"protocol": "http",
					"host": [
						"127",
						"0",
						"0",
						"1"
					],
					"port": "3000",
					"path": [
						"company",
						"6a195890-5928-11e8-bf29-ebf83cd89c2b",
						"workspace"
					]
				},
				"description": null
			},
			"response": []
		},
		{
			"name": "Create user",
			"request": {
				"method": "POST",
				"header": [
					{
						"key": "Content-Type",
						"value": "application/json"
					},
					{
						"key": "Accept",
						"value": "application/json"
					}
				],
				"body": {
					"mode": "raw",
					"raw": "{\n\t\"email\": \"magd@test.com\",\n\t\"role\": \"admin\"\n}\n"
				},
				"url": {
					"raw": "http://127.0.0.1:3000/company/6a195890-5928-11e8-bf29-ebf83cd89c2b/workspace/6fe8ece0-5928-11e8-bf29-ebf83cd89c2b/user",
					"protocol": "http",
					"host": [
						"127",
						"0",
						"0",
						"1"
					],
					"port": "3000",
					"path": [
						"company",
						"6a195890-5928-11e8-bf29-ebf83cd89c2b",
						"workspace",
						"6fe8ece0-5928-11e8-bf29-ebf83cd89c2b",
						"user"
					]
				},
				"description": ""
			},
			"response": []
		},
		{
			"name": "Delete user",
			"request": {
				"method": "DELETE",
				"header": [
					{
						"key": "Content-Type",
						"value": "application/json"
					},
					{
						"key": "Accept",
						"value": "application/json"
					}
				],
				"body": {
					"mode": "raw",
					"raw": ""
				},
				"url": {
					"raw": "http://127.0.0.1:3000/company/f2689bc0-5914-11e8-a3ec-0106a8e5aee8/workspace/21157600-5915-11e8-a3ec-0106a8e5aee8/user/f3dea050-591c-11e8-a23f-a90f6a0d7db5",
					"protocol": "http",
					"host": [
						"127",
						"0",
						"0",
						"1"
					],
					"port": "3000",
					"path": [
						"company",
						"f2689bc0-5914-11e8-a3ec-0106a8e5aee8",
						"workspace",
						"21157600-5915-11e8-a3ec-0106a8e5aee8",
						"user",
						"f3dea050-591c-11e8-a23f-a90f6a0d7db5"
					]
				},
				"description": ""
			},
			"response": []
		}
	]
}